<svg id="mermaid-1588799503973" width="100%" xmlns="http://www.w3.org/2000/svg" height="100%" viewBox="0 0 1568 364"><style>#mermaid-1588799503973 .label{font-family:'trebuchet ms', verdana, arial;font-family:var(--mermaid-font-family);color:#333}#mermaid-1588799503973 .label text{fill:#333}#mermaid-1588799503973 .node rect,#mermaid-1588799503973 .node circle,#mermaid-1588799503973 .node ellipse,#mermaid-1588799503973 .node polygon,#mermaid-1588799503973 .node path{fill:#ECECFF;stroke:#9370db;stroke-width:1px}#mermaid-1588799503973 .node .label{text-align:center}#mermaid-1588799503973 .node.clickable{cursor:pointer}#mermaid-1588799503973 .arrowheadPath{fill:#333}#mermaid-1588799503973 .edgePath .path{stroke:#333;stroke-width:1.5px}#mermaid-1588799503973 .edgeLabel{background-color:#e8e8e8;text-align:center}#mermaid-1588799503973 .cluster rect{fill:#ffffde;stroke:#aa3;stroke-width:1px}#mermaid-1588799503973 .cluster text{fill:#333}#mermaid-1588799503973 div.mermaidTooltip{position:absolute;text-align:center;max-width:200px;padding:2px;font-family:'trebuchet ms', verdana, arial;font-family:var(--mermaid-font-family);font-size:12px;background:#ffffde;border:1px solid #aa3;border-radius:2px;pointer-events:none;z-index:100}#mermaid-1588799503973 .actor{stroke:#ccf;fill:#ECECFF}#mermaid-1588799503973 text.actor{fill:#000;stroke:none}#mermaid-1588799503973 .actor-line{stroke:grey}#mermaid-1588799503973 .messageLine0{stroke-width:1.5;stroke-dasharray:'2 2';stroke:#333}#mermaid-1588799503973 .messageLine1{stroke-width:1.5;stroke-dasharray:'2 2';stroke:#333}#mermaid-1588799503973 #arrowhead{fill:#333}#mermaid-1588799503973 .sequenceNumber{fill:#fff}#mermaid-1588799503973 #sequencenumber{fill:#333}#mermaid-1588799503973 #crosshead path{fill:#333 !important;stroke:#333 !important}#mermaid-1588799503973 .messageText{fill:#333;stroke:none}#mermaid-1588799503973 .labelBox{stroke:#ccf;fill:#ECECFF}#mermaid-1588799503973 .labelText{fill:#000;stroke:none}#mermaid-1588799503973 .loopText{fill:#000;stroke:none}#mermaid-1588799503973 .loopLine{stroke-width:2;stroke-dasharray:'2 2';stroke:#ccf}#mermaid-1588799503973 .note{stroke:#aa3;fill:#fff5ad}#mermaid-1588799503973 .noteText{fill:black;stroke:none;font-family:'trebuchet ms', verdana, arial;font-family:var(--mermaid-font-family);font-size:14px}#mermaid-1588799503973 .activation0{fill:#f4f4f4;stroke:#666}#mermaid-1588799503973 .activation1{fill:#f4f4f4;stroke:#666}#mermaid-1588799503973 .activation2{fill:#f4f4f4;stroke:#666}#mermaid-1588799503973 .mermaid-main-font{font-family:"trebuchet ms", verdana, arial;font-family:var(--mermaid-font-family)}#mermaid-1588799503973 .section{stroke:none;opacity:0.2}#mermaid-1588799503973 .section0{fill:rgba(102,102,255,0.49)}#mermaid-1588799503973 .section2{fill:#fff400}#mermaid-1588799503973 .section1,#mermaid-1588799503973 .section3{fill:#fff;opacity:0.2}#mermaid-1588799503973 .sectionTitle0{fill:#333}#mermaid-1588799503973 .sectionTitle1{fill:#333}#mermaid-1588799503973 .sectionTitle2{fill:#333}#mermaid-1588799503973 .sectionTitle3{fill:#333}#mermaid-1588799503973 .sectionTitle{text-anchor:start;font-size:11px;text-height:14px;font-family:'trebuchet ms', verdana, arial;font-family:var(--mermaid-font-family)}#mermaid-1588799503973 .grid .tick{stroke:#d3d3d3;opacity:0.8;shape-rendering:crispEdges}#mermaid-1588799503973 .grid .tick text{font-family:'trebuchet ms', verdana, arial;font-family:var(--mermaid-font-family)}#mermaid-1588799503973 .grid path{stroke-width:0}#mermaid-1588799503973 .today{fill:none;stroke:red;stroke-width:2px}#mermaid-1588799503973 .task{stroke-width:2}#mermaid-1588799503973 .taskText{text-anchor:middle;font-family:'trebuchet ms', verdana, arial;font-family:var(--mermaid-font-family)}#mermaid-1588799503973 .taskText:not([font-size]){font-size:11px}#mermaid-1588799503973 .taskTextOutsideRight{fill:#000;text-anchor:start;font-size:11px;font-family:'trebuchet ms', verdana, arial;font-family:var(--mermaid-font-family)}#mermaid-1588799503973 .taskTextOutsideLeft{fill:#000;text-anchor:end;font-size:11px}#mermaid-1588799503973 .task.clickable{cursor:pointer}#mermaid-1588799503973 .taskText.clickable{cursor:pointer;fill:#003163 !important;font-weight:bold}#mermaid-1588799503973 .taskTextOutsideLeft.clickable{cursor:pointer;fill:#003163 !important;font-weight:bold}#mermaid-1588799503973 .taskTextOutsideRight.clickable{cursor:pointer;fill:#003163 !important;font-weight:bold}#mermaid-1588799503973 .taskText0,#mermaid-1588799503973 .taskText1,#mermaid-1588799503973 .taskText2,#mermaid-1588799503973 .taskText3{fill:#fff}#mermaid-1588799503973 .task0,#mermaid-1588799503973 .task1,#mermaid-1588799503973 .task2,#mermaid-1588799503973 .task3{fill:#8a90dd;stroke:#534fbc}#mermaid-1588799503973 .taskTextOutside0,#mermaid-1588799503973 .taskTextOutside2{fill:#000}#mermaid-1588799503973 .taskTextOutside1,#mermaid-1588799503973 .taskTextOutside3{fill:#000}#mermaid-1588799503973 .active0,#mermaid-1588799503973 .active1,#mermaid-1588799503973 .active2,#mermaid-1588799503973 .active3{fill:#bfc7ff;stroke:#534fbc}#mermaid-1588799503973 .activeText0,#mermaid-1588799503973 .activeText1,#mermaid-1588799503973 .activeText2,#mermaid-1588799503973 .activeText3{fill:#000 !important}#mermaid-1588799503973 .done0,#mermaid-1588799503973 .done1,#mermaid-1588799503973 .done2,#mermaid-1588799503973 .done3{stroke:grey;fill:#d3d3d3;stroke-width:2}#mermaid-1588799503973 .doneText0,#mermaid-1588799503973 .doneText1,#mermaid-1588799503973 .doneText2,#mermaid-1588799503973 .doneText3{fill:#000 !important}#mermaid-1588799503973 .crit0,#mermaid-1588799503973 .crit1,#mermaid-1588799503973 .crit2,#mermaid-1588799503973 .crit3{stroke:#f88;fill:red;stroke-width:2}#mermaid-1588799503973 .activeCrit0,#mermaid-1588799503973 .activeCrit1,#mermaid-1588799503973 .activeCrit2,#mermaid-1588799503973 .activeCrit3{stroke:#f88;fill:#bfc7ff;stroke-width:2}#mermaid-1588799503973 .doneCrit0,#mermaid-1588799503973 .doneCrit1,#mermaid-1588799503973 .doneCrit2,#mermaid-1588799503973 .doneCrit3{stroke:#f88;fill:#d3d3d3;stroke-width:2;cursor:pointer;shape-rendering:crispEdges}#mermaid-1588799503973 .milestone{transform:rotate(45deg) scale(0.8, 0.8)}#mermaid-1588799503973 .milestoneText{font-style:italic}#mermaid-1588799503973 .doneCritText0,#mermaid-1588799503973 .doneCritText1,#mermaid-1588799503973 .doneCritText2,#mermaid-1588799503973 .doneCritText3{fill:#000 !important}#mermaid-1588799503973 .activeCritText0,#mermaid-1588799503973 .activeCritText1,#mermaid-1588799503973 .activeCritText2,#mermaid-1588799503973 .activeCritText3{fill:#000 !important}#mermaid-1588799503973 .titleText{text-anchor:middle;font-size:18px;fill:#000;font-family:'trebuchet ms', verdana, arial;font-family:var(--mermaid-font-family)}#mermaid-1588799503973 g.classGroup text{fill:#9370db;stroke:none;font-family:'trebuchet ms', verdana, arial;font-family:var(--mermaid-font-family);font-size:10px}#mermaid-1588799503973 g.classGroup text .title{font-weight:bolder}#mermaid-1588799503973 g.clickable{cursor:pointer}#mermaid-1588799503973 g.classGroup rect{fill:#ECECFF;stroke:#9370db}#mermaid-1588799503973 g.classGroup line{stroke:#9370db;stroke-width:1}#mermaid-1588799503973 .classLabel .box{stroke:none;stroke-width:0;fill:#ECECFF;opacity:0.5}#mermaid-1588799503973 .classLabel .label{fill:#9370db;font-size:10px}#mermaid-1588799503973 .relation{stroke:#9370db;stroke-width:1;fill:none}#mermaid-1588799503973 .dashed-line{stroke-dasharray:3}#mermaid-1588799503973 #compositionStart{fill:#9370db;stroke:#9370db;stroke-width:1}#mermaid-1588799503973 #compositionEnd{fill:#9370db;stroke:#9370db;stroke-width:1}#mermaid-1588799503973 #aggregationStart{fill:#ECECFF;stroke:#9370db;stroke-width:1}#mermaid-1588799503973 #aggregationEnd{fill:#ECECFF;stroke:#9370db;stroke-width:1}#mermaid-1588799503973 #dependencyStart{fill:#9370db;stroke:#9370db;stroke-width:1}#mermaid-1588799503973 #dependencyEnd{fill:#9370db;stroke:#9370db;stroke-width:1}#mermaid-1588799503973 #extensionStart{fill:#9370db;stroke:#9370db;stroke-width:1}#mermaid-1588799503973 #extensionEnd{fill:#9370db;stroke:#9370db;stroke-width:1}#mermaid-1588799503973 .commit-id,#mermaid-1588799503973 .commit-msg,#mermaid-1588799503973 .branch-label{fill:lightgrey;color:lightgrey;font-family:'trebuchet ms', verdana, arial;font-family:var(--mermaid-font-family)}#mermaid-1588799503973 .pieTitleText{text-anchor:middle;font-size:25px;fill:#000;font-family:'trebuchet ms', verdana, arial;font-family:var(--mermaid-font-family)}#mermaid-1588799503973 .slice{font-family:'trebuchet ms', verdana, arial;font-family:var(--mermaid-font-family)}#mermaid-1588799503973 g.stateGroup text{fill:#9370db;stroke:none;font-size:10px;font-family:'trebuchet ms', verdana, arial;font-family:var(--mermaid-font-family)}#mermaid-1588799503973 g.stateGroup text{fill:#9370db;stroke:none;font-size:10px}#mermaid-1588799503973 g.stateGroup .state-title{font-weight:bolder;fill:#000}#mermaid-1588799503973 g.stateGroup rect{fill:#ECECFF;stroke:#9370db}#mermaid-1588799503973 g.stateGroup line{stroke:#9370db;stroke-width:1}#mermaid-1588799503973 .transition{stroke:#9370db;stroke-width:1;fill:none}#mermaid-1588799503973 .stateGroup .composit{fill:white;border-bottom:1px}#mermaid-1588799503973 .stateGroup .alt-composit{fill:#e0e0e0;border-bottom:1px}#mermaid-1588799503973 .state-note{stroke:#aa3;fill:#fff5ad}#mermaid-1588799503973 .state-note text{fill:black;stroke:none;font-size:10px}#mermaid-1588799503973 .stateLabel .box{stroke:none;stroke-width:0;fill:#ECECFF;opacity:0.5}#mermaid-1588799503973 .stateLabel text{fill:#000;font-size:10px;font-weight:bold;font-family:'trebuchet ms', verdana, arial;font-family:var(--mermaid-font-family)}:root{--mermaid-font-family: '"trebuchet ms", verdana, arial';--mermaid-font-family: "Comic Sans MS", "Comic Sans", cursive}

:root { --mermaid-font-family: "trebuchet ms", verdana, arial;}</style><style>#mermaid-1588799503973 {
    color: rgb(0, 0, 0);
    font: 16px "trebuchet ms", verdana, arial;
  }</style><g></g><g class="grid" transform="translate(75, 314)" fill="none" font-size="10" font-family="sans-serif" text-anchor="middle"><path class="domain" stroke="currentColor" d="M0.5,-279V0.5H1418.5V-279"></path><g class="tick" opacity="1" transform="translate(12.5,0)"><line stroke="currentColor" y2="-279"></line><text fill="#000" y="3" dy="1em" stroke="none" font-size="10" style="text-anchor: middle;">2020-04-19</text></g><g class="tick" opacity="1" transform="translate(94.5,0)"><line stroke="currentColor" y2="-279"></line><text fill="#000" y="3" dy="1em" stroke="none" font-size="10" style="text-anchor: middle;">2020-04-26</text></g><g class="tick" opacity="1" transform="translate(176.5,0)"><line stroke="currentColor" y2="-279"></line><text fill="#000" y="3" dy="1em" stroke="none" font-size="10" style="text-anchor: middle;">2020-05-03</text></g><g class="tick" opacity="1" transform="translate(258.5,0)"><line stroke="currentColor" y2="-279"></line><text fill="#000" y="3" dy="1em" stroke="none" font-size="10" style="text-anchor: middle;">2020-05-10</text></g><g class="tick" opacity="1" transform="translate(340.5,0)"><line stroke="currentColor" y2="-279"></line><text fill="#000" y="3" dy="1em" stroke="none" font-size="10" style="text-anchor: middle;">2020-05-17</text></g><g class="tick" opacity="1" transform="translate(422.5,0)"><line stroke="currentColor" y2="-279"></line><text fill="#000" y="3" dy="1em" stroke="none" font-size="10" style="text-anchor: middle;">2020-05-24</text></g><g class="tick" opacity="1" transform="translate(504.5,0)"><line stroke="currentColor" y2="-279"></line><text fill="#000" y="3" dy="1em" stroke="none" font-size="10" style="text-anchor: middle;">2020-05-31</text></g><g class="tick" opacity="1" transform="translate(586.5,0)"><line stroke="currentColor" y2="-279"></line><text fill="#000" y="3" dy="1em" stroke="none" font-size="10" style="text-anchor: middle;">2020-06-07</text></g><g class="tick" opacity="1" transform="translate(668.5,0)"><line stroke="currentColor" y2="-279"></line><text fill="#000" y="3" dy="1em" stroke="none" font-size="10" style="text-anchor: middle;">2020-06-14</text></g><g class="tick" opacity="1" transform="translate(750.5,0)"><line stroke="currentColor" y2="-279"></line><text fill="#000" y="3" dy="1em" stroke="none" font-size="10" style="text-anchor: middle;">2020-06-21</text></g><g class="tick" opacity="1" transform="translate(832.5,0)"><line stroke="currentColor" y2="-279"></line><text fill="#000" y="3" dy="1em" stroke="none" font-size="10" style="text-anchor: middle;">2020-06-28</text></g><g class="tick" opacity="1" transform="translate(914.5,0)"><line stroke="currentColor" y2="-279"></line><text fill="#000" y="3" dy="1em" stroke="none" font-size="10" style="text-anchor: middle;">2020-07-05</text></g><g class="tick" opacity="1" transform="translate(996.5,0)"><line stroke="currentColor" y2="-279"></line><text fill="#000" y="3" dy="1em" stroke="none" font-size="10" style="text-anchor: middle;">2020-07-12</text></g><g class="tick" opacity="1" transform="translate(1078.5,0)"><line stroke="currentColor" y2="-279"></line><text fill="#000" y="3" dy="1em" stroke="none" font-size="10" style="text-anchor: middle;">2020-07-19</text></g><g class="tick" opacity="1" transform="translate(1160.5,0)"><line stroke="currentColor" y2="-279"></line><text fill="#000" y="3" dy="1em" stroke="none" font-size="10" style="text-anchor: middle;">2020-07-26</text></g><g class="tick" opacity="1" transform="translate(1242.5,0)"><line stroke="currentColor" y2="-279"></line><text fill="#000" y="3" dy="1em" stroke="none" font-size="10" style="text-anchor: middle;">2020-08-02</text></g><g class="tick" opacity="1" transform="translate(1324.5,0)"><line stroke="currentColor" y2="-279"></line><text fill="#000" y="3" dy="1em" stroke="none" font-size="10" style="text-anchor: middle;">2020-08-09</text></g><g class="tick" opacity="1" transform="translate(1406.5,0)"><line stroke="currentColor" y2="-279"></line><text fill="#000" y="3" dy="1em" stroke="none" font-size="10" style="text-anchor: middle;">2020-08-16</text></g></g><g><rect x="0" y="48" width="1530.5" height="24" class="section section0"></rect><rect x="0" y="72" width="1530.5" height="24" class="section section0"></rect><rect x="0" y="96" width="1530.5" height="24" class="section section0"></rect><rect x="0" y="120" width="1530.5" height="24" class="section section0"></rect><rect x="0" y="144" width="1530.5" height="24" class="section section0"></rect><rect x="0" y="168" width="1530.5" height="24" class="section section0"></rect><rect x="0" y="192" width="1530.5" height="24" class="section section0"></rect><rect x="0" y="216" width="1530.5" height="24" class="section section0"></rect><rect x="0" y="240" width="1530.5" height="24" class="section section0"></rect><rect x="0" y="264" width="1530.5" height="24" class="section section0"></rect><rect x="0" y="288" width="1530.5" height="24" class="section section0"></rect></g><g><rect id="des1" rx="3" ry="3" x="75" y="50" width="352" height="20" transform-origin="251px 60px" class="task active0 "></rect><rect id="des2" rx="3" ry="3" x="427" y="74" width="351" height="20" transform-origin="602.5px 84px" class="task task0 "></rect><rect id="des3" rx="3" ry="3" x="790" y="98" width="351" height="20" transform-origin="965.5px 108px" class="task task0 "></rect><rect id="des4" rx="3" ry="3" x="1141" y="122" width="352" height="20" transform-origin="1317px 132px" class="task task0 "></rect><rect id="des1" rx="3" ry="3" x="75" y="146" width="527" height="20" transform-origin="338.5px 156px" class="task active0 "></rect><rect id="des2" rx="3" ry="3" x="157" y="170" width="352" height="20" transform-origin="333px 180px" class="task active0 "></rect><rect id="des3" rx="3" ry="3" x="391" y="194" width="352" height="20" transform-origin="567px 204px" class="task task0 "></rect><rect id="des4" rx="3" ry="3" x="427" y="218" width="703" height="20" transform-origin="778.5px 228px" class="task task0 "></rect><rect id="des5" rx="3" ry="3" x="427" y="242" width="703" height="20" transform-origin="778.5px 252px" class="task task0 "></rect><rect id="des6" rx="3" ry="3" x="591" y="266" width="527" height="20" transform-origin="854.5px 276px" class="task task0 "></rect><rect id="des7" rx="3" ry="3" x="942" y="290" width="528" height="20" transform-origin="1206px 300px" class="task task0 "></rect><text id="des1-text" font-size="11" x="251" y="63.5" text-height="20" class=" taskText taskText0 activeText0 width-21.34375">13.0                      					</text><text id="des2-text" font-size="11" x="602.5" y="87.5" text-height="20" class=" taskText taskText0  width-21.34375">13.1                      					</text><text id="des3-text" font-size="11" x="965.5" y="111.5" text-height="20" class=" taskText taskText0  width-21.34375">13.2                      					</text><text id="des4-text" font-size="11" x="1317" y="135.5" text-height="20" class=" taskText taskText0  width-21.34375">13.3                      					</text><text id="des1-text" font-size="11" x="338.5" y="159.5" text-height="20" class=" taskText taskText0 activeText0 width-191.4375">Gitlab.com downgrades &amp; resubscribes 		</text><text id="des2-text" font-size="11" x="333" y="183.5" text-height="20" class=" taskText taskText0 activeText0 width-99.234375">Auto-renew banners 		                    </text><text id="des3-text" font-size="11" x="567" y="207.5" text-height="20" class=" taskText taskText0  width-170.265625">In-app resubscribe for Gitlab.com.          </text><text id="des4-text" font-size="11" x="778.5" y="231.5" text-height="20" class=" taskText taskText0  width-209.375">Allow cancel and renew within Gitlab.com    </text><text id="des5-text" font-size="11" x="778.5" y="255.5" text-height="20" class=" taskText taskText0  width-56.25">What's New		                        	</text><text id="des6-text" font-size="11" x="854.5" y="279.5" text-height="20" class=" taskText taskText0  width-70.78125">Zuora Dunning                               </text><text id="des7-text" font-size="11" x="1206" y="303.5" text-height="20" class=" taskText taskText0  width-164.609375">Cancel flow intercept experience            </text></g><g><text dy="0em" x="10" y="182" class="sectionTitle sectionTitle0"><tspan alignment-baseline="central" x="10">Milestone</tspan></text></g><g class="today"><line x1="294" x2="294" y1="25" y2="339" class="today"></line></g><text x="784" y="25" class="titleText">Retention Roadmap</text></svg>